Fitting and interpreting models
…
ggplot(ht_wt_fit_aug, mapping = aes(x = .fitted, y = .resid)) +
  geom_point(alpha = 0.5) +
  geom_hline(yintercept = 0, color = "gray", lty = "dashed") +
  labs(x = "Predicted height", y = "Residuals")
```
]

.panel[.panel-name[Augment]

```r
ht_wt_fit_aug
```

```
## # A tibble: 3,135 x 9
##    .rown~1 Heigh~2 Width~3 .fitted  .resid    .hat .sigma .cooksd
##    <chr>     <dbl>   <dbl>   <dbl>   <dbl>   <dbl>  <dbl>   <dbl>
##  1 1            37    29.5   26.7  10.3    3.99e-4   8.30 3.10e-4
##  2 2            18    14     14.6   3.45   3.96e-4   8.31 3.42e-5
##  3 3            13    16     16.1  -3.11   3.61e-4   8.31 2.54e-5
##  4 4            14    18     17.7  -3.68   3.37e-4   8.31 3.30e-5
##  5 5            14    18     17.7  -3.68   3.37e-4   8.31 3.30e-5
##  6 6             7    10     11.4  -4.43   4.98e-4   8.31 7.09e-5
##  7 7             6    13     13.8  -7.77   4.18e-4   8.30 1.83e-4
##  8 8             6    13     13.8  -7.77   4.18e-4   8.30 1.83e-4
##  9 9            15    15     15.3  -0.333  3.77e-4   8.31 3.04e-7
## 10 10            9     7      9.09 -0.0870 6.01e-4   8.31 3.30e-8
## # ... with 3,125 more rows, 1 more variable: .std.resid <dbl>,
## #   and abbreviated variable names 1: .rownames, 2: Height_in,
## #   3: Width_in
```
…
---

class: middle

# Models with categorical explanatory variables

---

## Categorical predictor with 2 levels

.pull-left-narrow[
.small[

```
## # A tibble: 3,393 x 3
##    name      Height_in landsALL
##    <chr>         <dbl>    <dbl>
##  1 L1764-2          37        0
##  2 L1764-3          18        0
##  3 L1764-4          13        1
##  4 L1764-5a         14        1
##  5 L1764-5b         14        1
##  6 L1764-6           7        0
##  7 L1764-7a          6        0
##  8 L1764-7b          6        0
##  9 L1764-8          15        0
## 10 L1764-9a          9        0
## 11 L1764-9b          9        0
## 12 L1764-10a        16        1
## 13 L1764-10b        16        1
## 14 L1764-10c        16        1
## 15 L1764-11         20        0
## 16 L1764-12a        14        1
## 17 L1764-12b        14        1
## 18 L1764-13a        15        1
## 19 L1764-13b        15        1
## 20 L1764-14         37        0
## # ... with 3,373 more rows
```
…
ggplot(ht_land_fit_aug, mapping = aes(x = .fitted, y = .resid)) +
  geom_point(alpha = 0.5) +
  geom_hline(yintercept = 0, color = "gray", lty = "dashed") +
  labs(x = "Predicted height", y = "Residuals")
```
]

.panel[.panel-name[Augment]

```r
ht_land_fit_aug
```

```
## # A tibble: 3,141 x 9
##    .rowna~1 Heigh~2 facto~3 .fitted .resid    .hat .sigma .cooksd
##    <chr>      <dbl> <fct>     <dbl>  <dbl>   <dbl>  <dbl>   <dbl>
##  1 1             37 0          22.7  14.3  5.13e-4   14.5 2.51e-4
##  2 2             18 0          22.7  -4.68 5.13e-4   14.5 2.68e-5
##  3 3             13 1          17.0  -4.03 8.39e-4   14.5 3.26e-5
##  4 4             14 1          17.0  -3.03 8.39e-4   14.5 1.85e-5
##  5 5             14 1          17.0  -3.03 8.39e-4   14.5 1.85e-5
##  6 6              7 0          22.7 -15.7  5.13e-4   14.5 3.01e-4
##  7 7              6 0          22.7 -16.7  5.13e-4   14.5 3.41e-4
##  8 8              6 0          22.7 -16.7  5.13e-4   14.5 3.41e-4
##  9 9             15 0          22.7  -7.68 5.13e-4   14.5 7.22e-5
## 10 10             9 0          22.7 -13.7  5.13e-4   14.5 2.29e-4
## # ... with 3,131 more rows, 1 more variable: .std.resid <dbl>,
## #   and abbreviated variable names 1: .rownames, 2: Height_in,
## #   3: `factor(landsALL)`
```
…
ggplot(ht_wt_land_fit_aug, mapping = aes(x = .fitted, y = .resid)) +
  geom_point(alpha = 0.5) +
  geom_hline(yintercept = 0, color = "gray", lty = "dashed") +
  labs(x = "Predicted height", y = "Residuals")
```
]

.panel[.panel-name[Augment]

```r
ht_wt_land_fit_aug
```

```
## # A tibble: 3,135 x 10
##    .rown~1 Heigh~2 facto~3 Width~4 .fitted  .resid    .hat .sigma
##    <chr>     <dbl> <fct>     <dbl>   <dbl>   <dbl>   <dbl>  <dbl>
##  1 1            37 0          29.5    28.5  8.47   5.88e-4   7.94
##  2 2            18 0          14      16.5  1.51   5.98e-4   7.94
##  3 3            13 1          16      13.0 -0.0251 8.75e-4   7.94
##  4 4            14 1          18      14.6 -0.578  8.53e-4   7.94
##  5 5            14 1          18      14.6 -0.578  8.53e-4   7.94
##  6 6             7 0          10      13.4 -6.38   7.03e-4   7.94
##  7 7             6 0          13      15.7 -9.71   6.20e-4   7.94
##  8 8             6 0          13      15.7 -9.71   6.20e-4   7.94
##  9 9            15 0          15      17.3 -2.27   5.78e-4   7.94
## 10 10            9 0           7      11.1 -2.05   8.09e-4   7.94
## # ... with 3,125 more rows, 2 more variables: .cooksd <dbl>,
## #   .std.resid <dbl>, and abbreviated variable names
## #   1: .rownames, 2: Height_in, 3: `factor(landsALL)`,
## #   4: Width_in
```
…
ggplot(ht_wt_land_fit_aug, mapping = aes(x = .fitted, y = .resid)) +
  geom_point(alpha = 0.5) +
  geom_hline(yintercept = 0, color = "gray", lty = "dashed") +
  labs(x = "Predicted logged height", y = "Residuals")
```
]

.panel[.panel-name[Augment]

```r
ht_wt_land_fit_aug
```

```
## # A tibble: 3,135 x 10
##    .rown~1 log(H~2 facto~3 Width~4 .fitted  .resid    .hat .sigma
##    <chr>     <dbl> <fct>     <dbl>   <dbl>   <dbl>   <dbl>  <dbl>
##  1 1          3.61 0          29.5    3.15  0.456  5.88e-4  0.400
##  2 2          2.89 0          14      2.64  0.248  5.98e-4  0.400
##  3 3          2.56 1          16      2.47  0.0966 8.75e-4  0.400
##  4 4          2.64 1          18      2.53  0.105  8.53e-4  0.400
##  5 5          2.64 1          18      2.53  0.105  8.53e-4  0.400
##  6 6          1.95 0          10      2.51 -0.564  7.03e-4  0.400
##  7 7          1.79 0          13      2.61 -0.818  6.20e-4  0.400
##  8 8          1.79 0          13      2.61 -0.818  6.20e-4  0.400
##  9 9          2.71 0          15      2.68  0.0326 5.78e-4  0.400
## 10 10         2.20 0           7      2.41 -0.214  8.09e-4  0.400
## # ... with 3,125 more rows, 2 more variables: .cooksd <dbl>,
## #   .std.resid <dbl>, and abbreviated variable names
## #   1: .rownames, 2: `log(Height_in)`, 3: `factor(landsALL)`,
## #   4: Width_in
```
…
```
## # A tibble: 3,393 x 3
##    name      Height_in school_pntg
##    <chr>         <dbl> <chr>      
##  1 L1764-2          37 F          
##  2 L1764-3          18 I          
##  3 L1764-4          13 D/FL       
##  4 L1764-5a         14 F          
##  5 L1764-5b         14 F          
##  6 L1764-6           7 I          
##  7 L1764-7a          6 F          
##  8 L1764-7b          6 F          
##  9 L1764-8          15 I          
## 10 L1764-9a          9 D/FL       
## 11 L1764-9b          9 D/FL       
## 12 L1764-10a        16 X          
## 13 L1764-10b        16 X          
## 14 L1764-10c        16 X          
## 15 L1764-11         20 D/FL       
## 16 L1764-12a        14 D/FL       
## 17 L1764-12b        14 D/FL       
## 18 L1764-13a        15 D/FL       
## 19 L1764-13b        15 D/FL       
## 20 L1764-14         37 F          
## # ... with 3,373 more rows
```
…
