Visualizing Missing Data
…
```
## [1] 4.444444
```

---
# Calculating how much is missing by column

```r
miss_var_summary(typical_data)
```

```
## # A tibble: 9 × 3
##   variable n_miss pct_miss
##   <chr>     <int>    <dbl>
## 1 Race        500       10
## 2 Age         500       10
## 3 IQ          500       10
## 4 Income      500       10
## 5 ID            0        0
## 6 Sex           0        0
## # ℹ 3 more rows
```
…
