Working with regular expressions
…
```
## [1]  TRUE FALSE FALSE
```

`str_detect()` works well with `filter`

```r
baby1880 |>
  filter(str_detect(name, pattern = "x")) |>
  count(name, wt = n, sort = TRUE)
```

```
## # A tibble: 13 × 2
##   name          n
##   <chr>     <int>
## 1 Alexander   211
## 2 Alex        147
## 3 Felix        92
## 4 Roxie        62
## 5 Max          52
## 6 Axel         16
## # ℹ 7 more rows
```
…
```r
# number of vowels and consonants for babynames with an x

babynames |>
  filter(str_detect(name, pattern = "x")) |>
  count(name) |>
  mutate(vowels = str_count(name, "[aeiou]"),
         consonants = str_count(name, "[^aeiou]")
         ) %>%
  arrange(vowels, consonants, n)
```

```
## # A tibble: 974 × 4
##   name      n vowels consonants
##   <chr> <int>  <int>      <int>
## 1 Nyx       9      0          3
## 2 Axl      30      0          3
## 3 Axyl      9      0          4
## 4 Lynx      9      0          4
## 5 Eryx     11      0          4
## 6 Alyx     57      0          4
## # ℹ 968 more rows
```
…
---
## Replace values

- We can also modify matched with `str_replace()` and `str_replace_all()`. `str_replace` replaces the first match and `str_replace_all()` replaces all matches.

```r
babynames |>
  count(name) |>
  filter(str_detect(name, pattern = "[cC]")) |>
  mutate(new_name = str_replace_all(name, "[cC]", "cup"))
```

```
## # A tibble: 12,917 × 3
##   name        n new_name 
##   <chr>   <int> <chr>    
## 1 Aalicia     1 Aalicupia
## 2 Aalycia     4 Aalycupia
## 3 Aanchal    10 Aancuphal
## 4 Aaric      33 Aaricup  
## 5 Aarica     13 Aaricupa 
## 6 Aarick      5 Aaricupk 
## # ℹ 12,911 more rows
```
…
